hb_min,curr_hb,bitrate
2.000000,0.000000,43762.000000
2.000000,3.849766,21927.600000
2.000000,3.266247,76660.800000
2.000000,0.801148,82073.100000
2.000000,1.040058,84034.080000
2.000000,0.924084,86069.466667
2.000000,0.764016,86818.742857
2.000000,0.816016,87599.200000
2.000000,0.833113,88548.355556
2.000000,0.809347,88820.680000
2.000000,0.853970,88613.309091
2.000000,0.869065,88478.400000
2.000000,0.897891,88356.584615
2.000000,0.902313,88262.371429
2.000000,0.895048,88133.786667
2.000000,0.899291,88128.400000
2.000000,0.841799,88209.270588
2.000000,0.827876,88054.955556
2.000000,0.850514,87721.221053
2.000000,0.886465,87464.300000
2.000000,0.899520,87384.400000
2.000000,0.888031,87237.818182
2.000000,0.897374,87385.460870
2.000000,0.832679,87509.783333
2.000000,0.823966,87406.672000
2.000000,0.852462,87323.984615
2.000000,0.868972,87429.229630
2.000000,0.861519,87439.785714
2.000000,0.882349,87456.055172
2.000000,0.892355,87348.413333
2.000000,0.916282,87309.625806
2.000000,0.899833,87356.362500
2.000000,0.859627,87401.660606
2.000000,0.843599,87459.058824
2.000000,0.815161,87456.342857
2.000000,0.835707,87530.300000
2.000000,0.832815,87509.200000
2.000000,0.841664,87448.789474
2.000000,0.856382,87507.620513
